@startuml
"Gestor VideoWalls" -> "Servidor Rbpi": Envío primer paquete vídeo
"Servidor Rbpi" -> "Gestor VideoWalls": Confirmación

"Gestor VideoWalls" -> "Servidor Rbpi": Envío 512Kb de vídeo
"Gestor VideoWalls" -> "Servidor Rbpi": Envío 512Kb de vídeo

...
"Gestor VideoWalls" -> "Servidor Rbpi": Envio último paquete vídeo

@enduml