@startuml

conn_zmq <|-- zmqVideo

class zmqVideo {
# pthread_t wk_thread
# {static} void *thread(void* arg)
+ zmqVideo() : conn_zmq(ZMQ_PAIR)
+ void recv_videos_thread()
+ void* recv_videos()
+ void recv_data()
}
@enduml